<svg width="18" height="18" viewBox="0 0 18 18" fill="none" xmlns="http://www.w3.org/2000/svg">
<g id="Iconly/Two-tone/Arrow - Down 2">
<g id="Arrow - Down 2">
<path id="Stroke 1" d="M14.25 6.375L9 11.625L3.75 6.375" stroke="#FFCF00" stroke-width="1.5" stroke-linecap="round" stroke-linejoin="round"/>
</g>
</g>
</svg>



