<svg width="21" height="20" viewBox="0 0 21 20" fill="none" xmlns="http://www.w3.org/2000/svg">
<path opacity="0.4" d="M10.077 2.32417H6.96116C4.39866 2.32417 2.79199 4.13834 2.79199 6.70667V13.635C2.79199 16.2033 4.39116 18.0175 6.96116 18.0175H14.3145C16.8853 18.0175 18.4845 16.2033 18.4845 13.635V10.2783" stroke="#A9A9A9" stroke-width="1.5" stroke-linecap="round" stroke-linejoin="round"/>
<path fill-rule="evenodd" clip-rule="evenodd" d="M7.85652 9.10076L14.084 2.87326C14.8599 2.09826 16.1174 2.09826 16.8932 2.87326L17.9074 3.88742C18.6832 4.66326 18.6832 5.92159 17.9074 6.69659L11.6499 12.9541C11.3107 13.2933 10.8507 13.4841 10.3707 13.4841H7.24902L7.32736 10.3341C7.33902 9.87076 7.52819 9.42909 7.85652 9.10076Z" stroke="#A9A9A9" stroke-width="1.5" stroke-linecap="round" stroke-linejoin="round"/>
<path d="M13.1377 3.83542L16.9427 7.64042" stroke="#A9A9A9" stroke-width="1.5" stroke-linecap="round" stroke-linejoin="round"/>
</svg>
