<svg width="25" height="25" viewBox="0 0 25 25" fill="none" xmlns="http://www.w3.org/2000/svg">
<g id="Iconly/Two-tone/Filter 2">
<g id="Filter 2">
<path id="Filter 2_2" fill-rule="evenodd" clip-rule="evenodd" d="M9.6807 22.9167L14.656 20.5749V14.4379L22.4578 6.5256C22.7518 6.22912 22.9168 5.82223 22.9168 5.39613V3.66412C22.9168 2.79031 22.2311 2.08334 21.3851 2.08334H3.61526C2.76919 2.08334 2.0835 2.79031 2.0835 3.66412V5.43574C2.0835 5.83783 2.23109 6.22432 2.49723 6.51719L9.6807 14.4379V22.9167Z" stroke="url(#paint0_linear_95_21303)" stroke-width="1.5" stroke-linecap="round" stroke-linejoin="round"/>
<path id="Vector 1" opacity="0.4" d="M11 6H21.5" stroke="url(#paint1_linear_95_21303)" stroke-width="1.5" stroke-linecap="round" stroke-linejoin="round"/>
</g>
</g>
<defs>
<linearGradient id="paint0_linear_95_21303" x1="2.0835" y1="22.9167" x2="22.9168" y2="2.08335" gradientUnits="userSpaceOnUse">
<stop stop-color="#12B2B3"/>
<stop offset="1" stop-color="#56E0E0"/>
</linearGradient>
<linearGradient id="paint1_linear_95_21303" x1="11" y1="7" x2="11.1888" y2="5.01798" gradientUnits="userSpaceOnUse">
<stop stop-color="#12B2B3"/>
<stop offset="1" stop-color="#56E0E0"/>
</linearGradient>
</defs>
</svg>
