<svg width="18" height="18" viewBox="0 0 18 18" fill="none" xmlns="http://www.w3.org/2000/svg">
<g id="Iconly/Two-tone/Location">
<g id="Location">
<path id="Path_33958" fill-rule="evenodd" clip-rule="evenodd" d="M3.17969 7.79349C3.19049 4.61305 5.77751 2.04355 8.95795 2.05436C12.1384 2.06516 14.7079 4.65218 14.6971 7.83262V7.89783C14.6579 9.96522 13.5036 11.8761 12.0884 13.3696C11.279 14.21 10.3752 14.9541 9.39491 15.587C9.13279 15.8137 8.74398 15.8137 8.48186 15.587C7.02049 14.6358 5.73789 13.4349 4.69273 12.0391C3.7612 10.822 3.23231 9.34481 3.17969 7.81305L3.17969 7.79349Z" stroke="#A9A9A9" stroke-width="1.5" stroke-linecap="round" stroke-linejoin="round"/>
<ellipse id="Ellipse_740" opacity="0.4" cx="8.93843" cy="7.90437" rx="1.84565" ry="1.84565" stroke="#A9A9A9" stroke-width="1.5" stroke-linecap="round" stroke-linejoin="round"/>
</g>
</g>
</svg>
