<svg width="36" height="36" viewBox="0 0 36 36" fill="none" xmlns="http://www.w3.org/2000/svg">
<rect opacity="0.01" width="36" height="36" fill="black"/>
<path fill-rule="evenodd" clip-rule="evenodd" d="M29.5378 6.47426C29.225 5.94064 28.7463 5.47915 28.1316 5.08915C27.8124 3.88851 26.7299 3 25.4297 3C23.8792 3 22.6231 4.25745 22.6231 5.8066C22.6231 7.35702 23.8812 8.61319 25.4297 8.61319C26.0297 8.61319 26.5863 8.41979 27.042 8.09745C27.2814 8.79 27.0037 10.7394 25.5797 13.2243C24.0299 15.9281 22.3237 17.1887 21.6592 17.1887C20.7988 17.1887 18.6618 15.3089 17.1337 12.2483C16.0467 10.0691 15.9452 8.54936 16.2158 8.13064C16.6658 8.43511 17.2058 8.61319 17.7892 8.61319C19.3397 8.61319 20.5958 7.35638 20.5958 5.8066C20.5965 4.25681 19.3397 3 17.7892 3C16.4201 3 15.2833 3.98106 15.0356 5.27745C14.5595 5.58766 14.1714 5.94 13.8758 6.33319C12.3158 8.40894 13.5963 11.7543 14.5007 13.5632C15.5105 15.5872 17.6635 18.7628 20.1146 19.7936V25.3774C20.1146 28.364 18.1486 29.4274 16.3097 29.4274C14.472 29.4274 12.506 28.364 12.506 25.3774V24.2017C14.3948 23.5602 15.7601 21.7743 15.7601 19.6717C15.7601 17.033 13.6135 14.8864 10.9741 14.8864C8.33605 14.8864 6.18945 17.033 6.18945 19.6717C6.18945 21.8183 7.61222 23.6406 9.56286 24.2432V25.3755C9.56286 29.4932 12.3382 32.3694 16.3097 32.3694C20.2843 32.3694 23.0597 29.4932 23.0597 25.3755V19.8523C25.5369 18.907 27.5156 15.7691 28.1341 14.6891C28.8548 13.433 31.0875 9.12319 29.5378 6.47426ZM10.9735 17.8315C11.9884 17.8315 12.815 18.6568 12.815 19.6717C12.815 20.6872 11.9884 21.5126 10.9735 21.5126C9.95796 21.5126 9.13264 20.6872 9.13264 19.6717C9.13264 18.6568 9.95796 17.8315 10.9735 17.8315Z" fill="white"/>
</svg>
