<svg width="15" height="15" viewBox="0 0 15 15" fill="none" xmlns="http://www.w3.org/2000/svg">
<path d="M9.88305 7.51363H2.35742" stroke="#4D4D4D" stroke-width="1.5" stroke-linecap="round" stroke-linejoin="round"/>
<path d="M8.05322 5.69112L9.88322 7.51362L8.05322 9.33612" stroke="#4D4D4D" stroke-width="1.5" stroke-linecap="round" stroke-linejoin="round"/>
<path opacity="0.4" d="M5.31543 4.61812V4.035C5.31543 2.76312 6.34605 1.7325 7.61855 1.7325H10.6711C11.9398 1.7325 12.9679 2.76062 12.9679 4.02937V10.9919C12.9679 12.2637 11.9367 13.295 10.6648 13.295H7.61168C6.34355 13.295 5.31543 12.2662 5.31543 10.9981V10.4094" stroke="#4D4D4D" stroke-width="1.5" stroke-linecap="round" stroke-linejoin="round"/>
</svg>
