<svg width="10" height="10" viewBox="0 0 10 10" fill="none" xmlns="http://www.w3.org/2000/svg">
<path fill-rule="evenodd" clip-rule="evenodd" d="M5.75005 1.02124C5.75005 0.607027 5.41427 0.27124 5.00005 0.27124C4.58584 0.27124 4.25005 0.607027 4.25005 1.02124V4.23975H1.02783C0.613618 4.23975 0.277832 4.57553 0.277832 4.98975C0.277832 5.40396 0.613618 5.73975 1.02783 5.73975H4.25005V8.95813C4.25005 9.37234 4.58584 9.70813 5.00005 9.70813C5.41427 9.70813 5.75005 9.37234 5.75005 8.95813V5.73975H8.97228C9.38649 5.73975 9.72228 5.40396 9.72228 4.98975C9.72228 4.57553 9.38649 4.23975 8.97228 4.23975H5.75005V1.02124Z" fill="#4D4D4D"/>
</svg>
