<svg width="90" height="17" viewBox="0 0 90 17" fill="none" xmlns="http://www.w3.org/2000/svg">
<g id="Logo &#208;&#189;&#208;&#181;&#209;&#128;&#208;&#181;&#208;&#180;&#208;&#176;&#208;&#186;&#209;&#130;&#208;&#184;&#209;&#128;&#209;&#131;&#208;&#181;&#208;&#188;&#209;&#139;&#208;&#185;">
<g id="Union">
<path fill-rule="evenodd" clip-rule="evenodd" d="M3.1011 6.6587C3.10752 6.51364 3.11844 6.36875 3.13386 6.22424L3.13888 6.17862C3.31016 4.66696 3.97409 3.20075 5.13067 2.04138C6.68662 0.481669 8.79654 -0.18427 10.8255 0.0435556V0.0592903H10.8558V3.16318C11.5654 3.31396 12.241 3.66558 12.7921 4.21805C13.3583 4.78564 13.7131 5.48495 13.8564 6.21759L16.959 6.21149C17.179 8.2386 16.5139 10.344 14.9635 11.898C13.6691 13.1956 11.9913 13.8745 10.2956 13.935C10.0384 14.4678 9.68929 14.9673 9.24819 15.4094C7.13254 17.5302 3.70239 17.5302 1.58674 15.4094C-0.528913 13.2887 -0.528912 9.85023 1.58674 7.72947C2.03984 7.27528 2.55323 6.91835 3.1011 6.6587ZM2.69294 8.83834C2.83238 8.69856 2.97985 8.57174 3.13386 8.45787L3.13386 11.5456L3.14092 11.5456C3.1348 12.1481 3.36103 12.7525 3.81962 13.2122C4.72471 14.1195 6.19215 14.1195 7.09725 13.2122C7.48823 12.8203 7.69959 12.3273 7.75277 11.8159C7.75277 10.719 7.81423 10.44 7.74203 8.48858C7.66984 6.53712 7.48303 6.25442 8.4083 5.32692C9.31339 4.41964 10.7808 4.41964 11.6859 5.32692C12.591 6.2342 12.591 7.70518 11.6859 8.61246C11.4316 8.86737 11.1329 9.05066 10.8148 9.16233V6.94817C10.8148 6.52316 10.4711 6.17862 10.0471 6.17862C9.62312 6.17862 9.27941 6.52316 9.27941 6.94817V10.6271C9.27941 11.038 9.27477 11.45 9.25942 11.8634C9.24823 12.0112 9.22859 12.1585 9.2005 12.3045C9.10017 12.8259 8.89205 13.3305 8.57613 13.7825C8.4489 13.9645 8.30418 14.138 8.14199 14.3006C6.63727 15.8089 4.19765 15.8089 2.69294 14.3006C1.18822 12.7922 1.18822 10.3467 2.69294 8.83834ZM7.3021 4.21805C7.8744 3.64436 8.58095 3.28724 9.32037 3.14669V1.61724C8.19253 1.77026 7.10376 2.28126 6.23687 3.15025C5.81893 3.5692 5.48399 4.03984 5.23207 4.54166C4.73592 5.52993 4.65256 6.67085 4.69074 7.77601C4.70048 8.05803 4.681 9.2171 4.69074 9.37681C4.70402 9.59449 4.70048 11.4257 4.71011 11.4832C4.71973 11.5406 4.75681 11.9339 4.92582 12.1034C5.21997 12.3982 5.69689 12.3982 5.99105 12.1034C6.11591 11.9782 6.18777 11.82 6.20663 11.6568C6.20663 11.6568 6.17993 7.42981 6.20663 6.54824C6.23333 5.66667 6.71902 4.80254 7.3021 4.21805ZM10.798 10.788C10.7945 10.8047 10.7858 10.7637 10.7858 10.8374C10.7858 10.9111 10.8513 11.829 10.7831 12.3209C11.9077 12.1663 12.9928 11.6557 13.8573 10.7891C14.7093 9.93515 15.2163 8.86637 15.3784 7.7567H13.8494C13.7018 8.47662 13.3493 9.16276 12.7921 9.72133C12.226 10.2888 11.5286 10.6443 10.798 10.788Z" fill="url(#paint0_linear_302_13680)"/>
<path d="M16.6131 4.67238H14.9256C14.6675 4.12154 14.3114 3.60538 13.8573 3.15025C13.4094 2.7012 12.9022 2.34775 12.3609 2.08989V0.395547C13.3113 0.730908 14.2035 1.27952 14.9635 2.04138C15.7294 2.80913 16.2793 3.71143 16.6131 4.67238Z" fill="url(#paint1_linear_302_13680)"/>
</g>
<g id="VSP Digital">
<path d="M29.1176 3.99504C29.1448 3.92251 29.1946 3.84998 29.2672 3.77744C29.3397 3.69584 29.4666 3.65504 29.648 3.65504H30.1512C30.2328 3.65504 30.3008 3.68678 30.3552 3.75024C30.4186 3.80464 30.4504 3.87264 30.4504 3.95424C30.4504 3.99958 30.4413 4.04491 30.4232 4.09024L27.4856 12.631C27.4312 12.7942 27.3405 12.9257 27.2136 13.0254C27.0957 13.1252 26.9461 13.175 26.7648 13.175H26.2208C26.0394 13.175 25.8898 13.1252 25.772 13.0254C25.6541 12.9257 25.568 12.7942 25.5136 12.631L22.5624 4.09024C22.5442 4.04491 22.5352 3.99958 22.5352 3.95424C22.5352 3.87264 22.5624 3.80464 22.6168 3.75024C22.6802 3.68678 22.7528 3.65504 22.8344 3.65504H23.3376C23.5189 3.65504 23.6458 3.69584 23.7184 3.77744C23.7909 3.84998 23.8408 3.92251 23.868 3.99504L26.4928 11.815L29.1176 3.99504Z" fill="white"/>
<path d="M34.6803 3.51904C35.2333 3.51904 35.7184 3.60518 36.1355 3.77744C36.5616 3.94971 36.9197 4.16278 37.2099 4.41664C37.5091 4.66144 37.7357 4.92891 37.8899 5.21904C38.044 5.50011 38.1256 5.75398 38.1347 5.98064C38.1437 6.06224 38.1165 6.13478 38.0531 6.19824C37.9896 6.25264 37.9171 6.27984 37.8355 6.27984H37.2779C37.1781 6.27984 37.0965 6.26171 37.0331 6.22544C36.9787 6.18918 36.9197 6.10758 36.8563 5.98064C36.8109 5.88998 36.7339 5.77664 36.6251 5.64064C36.5253 5.49558 36.3848 5.35958 36.2035 5.23264C36.0312 5.09664 35.8181 4.98331 35.5643 4.89264C35.3104 4.79291 35.0157 4.74304 34.6803 4.74304C34.4264 4.74304 34.1816 4.77478 33.9459 4.83824C33.7192 4.89264 33.5152 4.97878 33.3339 5.09664C33.1525 5.21451 33.0075 5.36411 32.8987 5.54544C32.7899 5.71771 32.7355 5.92171 32.7355 6.15744C32.7355 6.39318 32.7853 6.59264 32.8851 6.75584C32.9939 6.91904 33.1616 7.06864 33.3883 7.20464C33.624 7.33158 33.9187 7.44944 34.2723 7.55824C34.6259 7.66704 35.0565 7.78944 35.5643 7.92544C36.0811 8.06144 36.5163 8.21104 36.8699 8.37424C37.2325 8.53744 37.5272 8.72331 37.7539 8.93184C37.9805 9.13131 38.1437 9.36704 38.2435 9.63904C38.3523 9.90198 38.4067 10.2012 38.4067 10.5366C38.4067 10.9446 38.316 11.3209 38.1347 11.6654C37.9624 12.0009 37.7176 12.291 37.4003 12.5358C37.0829 12.7806 36.6976 12.971 36.2443 13.107C35.8 13.243 35.3013 13.311 34.7483 13.311C34.2224 13.311 33.7373 13.234 33.2931 13.0798C32.8488 12.9257 32.468 12.7262 32.1507 12.4814C31.8333 12.2366 31.5795 11.9646 31.3891 11.6654C31.2077 11.3662 31.1125 11.0716 31.1035 10.7814C31.1035 10.6998 31.1307 10.6318 31.1851 10.5774C31.2485 10.514 31.3211 10.4822 31.4027 10.4822H31.9603C32.0509 10.4822 32.128 10.5004 32.1915 10.5366C32.264 10.5729 32.3275 10.6545 32.3819 10.7814C32.4363 10.9084 32.5179 11.0489 32.6267 11.203C32.7445 11.3481 32.8987 11.4886 33.0891 11.6246C33.2795 11.7516 33.5107 11.8604 33.7827 11.951C34.0547 12.0417 34.3765 12.087 34.7483 12.087C35.0656 12.087 35.3648 12.0508 35.6459 11.9782C35.936 11.9057 36.1899 11.8014 36.4075 11.6654C36.6251 11.5294 36.7973 11.3662 36.9243 11.1758C37.0512 10.9854 37.1147 10.7724 37.1147 10.5366C37.1147 10.3009 37.0421 10.1014 36.8971 9.93824C36.752 9.76598 36.5435 9.61184 36.2715 9.47584C35.9995 9.33984 35.664 9.21744 35.2651 9.10864C34.8752 8.99078 34.4309 8.86838 33.9323 8.74144C33.4789 8.62358 33.0936 8.48304 32.7763 8.31984C32.4589 8.14758 32.2005 7.95264 32.0011 7.73504C31.8016 7.51744 31.6565 7.27718 31.5659 7.01424C31.4843 6.75131 31.4435 6.46571 31.4435 6.15744C31.4435 5.82198 31.5115 5.49558 31.6475 5.17824C31.7835 4.86091 31.9829 4.57984 32.2459 4.33504C32.5179 4.09024 32.8533 3.89531 33.2523 3.75024C33.6603 3.59611 34.1363 3.51904 34.6803 3.51904Z" fill="white"/>
<path d="M43.9577 3.65504C44.402 3.65504 44.819 3.71398 45.2089 3.83184C45.6078 3.94064 45.9569 4.11291 46.2561 4.34864C46.5553 4.58438 46.791 4.88358 46.9633 5.24624C47.1446 5.60891 47.2353 6.03958 47.2353 6.53824C47.2353 7.03691 47.1446 7.47211 46.9633 7.84384C46.791 8.20651 46.5553 8.51024 46.2561 8.75504C45.9569 8.99984 45.6078 9.18118 45.2089 9.29904C44.819 9.41691 44.402 9.47584 43.9577 9.47584H41.4553V12.8078C41.4553 12.9076 41.419 12.9937 41.3465 13.0662C41.274 13.1388 41.1878 13.175 41.0881 13.175H40.5305C40.4308 13.175 40.3446 13.1388 40.2721 13.0662C40.1996 12.9937 40.1633 12.9076 40.1633 12.8078V4.02224C40.1633 3.92251 40.1996 3.83638 40.2721 3.76384C40.3446 3.69131 40.4308 3.65504 40.5305 3.65504H43.9577ZM41.4553 8.25184H43.8897C44.5425 8.25184 45.0457 8.11131 45.3993 7.83024C45.762 7.54918 45.9433 7.11851 45.9433 6.53824C45.9433 5.95798 45.762 5.53638 45.3993 5.27344C45.0457 5.01051 44.5425 4.87904 43.8897 4.87904H41.4553V8.25184Z" fill="white"/>
<path d="M59.2622 7.34064C59.2712 7.74864 59.2758 8.10678 59.2758 8.41504C59.2758 8.72331 59.2712 9.08144 59.2622 9.48944C59.2531 10.0606 59.1534 10.5774 58.963 11.0398C58.7726 11.4932 58.5096 11.8785 58.1742 12.1958C57.8387 12.5132 57.4398 12.758 56.9774 12.9302C56.515 13.0934 56.0027 13.175 55.4406 13.175H52.2446C52.1448 13.175 52.0587 13.1388 51.9862 13.0662C51.9136 12.9937 51.8774 12.9076 51.8774 12.8078V4.02224C51.8774 3.92251 51.9136 3.83638 51.9862 3.76384C52.0587 3.69131 52.1448 3.65504 52.2446 3.65504H55.359C55.9211 3.65504 56.4379 3.74118 56.9094 3.91344C57.3899 4.07664 57.8024 4.31691 58.147 4.63424C58.4915 4.95158 58.759 5.34144 58.9494 5.80384C59.1488 6.25718 59.2531 6.76944 59.2622 7.34064ZM57.9702 7.40864C57.9611 7.08224 57.9067 6.76944 57.807 6.47024C57.7163 6.16198 57.5667 5.88998 57.3582 5.65424C57.1496 5.41851 56.8776 5.23264 56.5422 5.09664C56.2067 4.95158 55.7942 4.87904 55.3046 4.87904H53.1694V11.951H55.3726C55.8622 11.951 56.2702 11.883 56.5966 11.747C56.932 11.602 57.1995 11.4116 57.399 11.1758C57.5984 10.9401 57.739 10.6726 57.8206 10.3734C57.9112 10.0652 57.9611 9.74784 57.9702 9.42144C57.9702 9.22198 57.9702 9.04518 57.9702 8.89104C57.9792 8.72784 57.9838 8.57371 57.9838 8.42864C57.9838 8.27451 57.9792 8.12038 57.9702 7.96624C57.9702 7.80304 57.9702 7.61718 57.9702 7.40864Z" fill="white"/>
<path d="M62.3286 12.8078C62.3286 12.9076 62.2924 12.9937 62.2198 13.0662C62.1473 13.1388 62.0612 13.175 61.9614 13.175H61.4582C61.3585 13.175 61.2724 13.1388 61.1998 13.0662C61.1273 12.9937 61.091 12.9076 61.091 12.8078V6.47024C61.091 6.37051 61.1273 6.28438 61.1998 6.21184C61.2724 6.13931 61.3585 6.10304 61.4582 6.10304H61.9614C62.0612 6.10304 62.1473 6.13931 62.2198 6.21184C62.2924 6.28438 62.3286 6.37051 62.3286 6.47024V12.8078ZM62.4646 4.66144C62.4646 4.76118 62.4284 4.84731 62.3558 4.91984C62.2833 4.99238 62.1972 5.02864 62.0974 5.02864H61.3222C61.2225 5.02864 61.1364 4.99238 61.0638 4.91984C60.9913 4.84731 60.955 4.76118 60.955 4.66144V3.88624C60.955 3.78651 60.9913 3.70038 61.0638 3.62784C61.1364 3.55531 61.2225 3.51904 61.3222 3.51904H62.0974C62.1972 3.51904 62.2833 3.55531 62.3558 3.62784C62.4284 3.70038 62.4646 3.78651 62.4646 3.88624V4.66144Z" fill="white"/>
<path d="M64.0315 9.19024C64.0587 8.69158 64.1539 8.24278 64.3171 7.84384C64.4803 7.44491 64.6979 7.10944 64.9699 6.83744C65.2419 6.55638 65.5592 6.34331 65.9219 6.19824C66.2937 6.04411 66.6926 5.96704 67.1187 5.96704C67.6808 5.96704 68.1297 6.06678 68.4651 6.26624C68.8006 6.45664 69.0544 6.66518 69.2267 6.89184V6.47024C69.2267 6.37051 69.263 6.28438 69.3355 6.21184C69.4081 6.13931 69.4942 6.10304 69.5939 6.10304H70.0971C70.1968 6.10304 70.283 6.13931 70.3555 6.21184C70.4281 6.28438 70.4643 6.37051 70.4643 6.47024V13.0798C70.4643 14.0228 70.1968 14.7708 69.6619 15.3238C69.127 15.886 68.3246 16.167 67.2547 16.167C66.7107 16.167 66.2438 16.099 65.8539 15.963C65.4731 15.8361 65.1558 15.6729 64.9019 15.4734C64.6571 15.274 64.4712 15.0564 64.3443 14.8206C64.2264 14.5849 64.163 14.3582 64.1539 14.1406C64.1448 14.0409 64.1766 13.9548 64.2491 13.8822C64.3307 13.8097 64.4214 13.7734 64.5211 13.7734H64.9291C65.0288 13.7734 65.1105 13.7961 65.1739 13.8414C65.2464 13.8958 65.3144 13.9956 65.3779 14.1406C65.4051 14.195 65.4459 14.2676 65.5003 14.3582C65.5638 14.458 65.659 14.5532 65.7859 14.6438C65.9219 14.7436 66.0942 14.8252 66.3027 14.8886C66.5203 14.9612 66.7923 14.9974 67.1187 14.9974C67.4179 14.9974 67.6945 14.9657 67.9483 14.9022C68.2113 14.8478 68.4379 14.7526 68.6283 14.6166C68.8187 14.4806 68.9638 14.2993 69.0635 14.0726C69.1723 13.846 69.2267 13.5694 69.2267 13.243V12.3862C69.0454 12.631 68.787 12.8486 68.4515 13.039C68.1161 13.2204 67.6718 13.311 67.1187 13.311C66.6926 13.311 66.2937 13.2385 65.9219 13.0934C65.5592 12.9393 65.2419 12.7262 64.9699 12.4542C64.6979 12.1732 64.4803 11.8332 64.3171 11.4342C64.1539 11.0353 64.0587 10.5865 64.0315 10.0878C64.0224 9.95184 64.0179 9.80224 64.0179 9.63904C64.0179 9.47584 64.0224 9.32624 64.0315 9.19024ZM69.2267 9.14944C69.1995 8.50571 69.0046 8.01158 68.6419 7.66704C68.2883 7.31344 67.8259 7.13664 67.2547 7.13664C66.6563 7.13664 66.1848 7.32704 65.8403 7.70784C65.4958 8.08864 65.3054 8.60544 65.2691 9.25824C65.2601 9.51211 65.2601 9.76598 65.2691 10.0198C65.3054 10.6726 65.4958 11.1894 65.8403 11.5702C66.1848 11.951 66.6563 12.1414 67.2547 12.1414C67.8259 12.1414 68.2883 11.9646 68.6419 11.611C69.0046 11.2574 69.1995 10.7633 69.2267 10.1286C69.2358 9.99264 69.2403 9.82944 69.2403 9.63904C69.2403 9.44864 69.2358 9.28544 69.2267 9.14944Z" fill="white"/>
<path d="M73.7372 12.8078C73.7372 12.9076 73.701 12.9937 73.6284 13.0662C73.5559 13.1388 73.4698 13.175 73.37 13.175H72.8668C72.7671 13.175 72.681 13.1388 72.6084 13.0662C72.5359 12.9937 72.4996 12.9076 72.4996 12.8078V6.47024C72.4996 6.37051 72.5359 6.28438 72.6084 6.21184C72.681 6.13931 72.7671 6.10304 72.8668 6.10304H73.37C73.4698 6.10304 73.5559 6.13931 73.6284 6.21184C73.701 6.28438 73.7372 6.37051 73.7372 6.47024V12.8078ZM73.8732 4.66144C73.8732 4.76118 73.837 4.84731 73.7644 4.91984C73.6919 4.99238 73.6058 5.02864 73.506 5.02864H72.7308C72.6311 5.02864 72.545 4.99238 72.4724 4.91984C72.3999 4.84731 72.3636 4.76118 72.3636 4.66144V3.88624C72.3636 3.78651 72.3999 3.70038 72.4724 3.62784C72.545 3.55531 72.6311 3.51904 72.7308 3.51904H73.506C73.6058 3.51904 73.6919 3.55531 73.7644 3.62784C73.837 3.70038 73.8732 3.78651 73.8732 3.88624V4.66144Z" fill="white"/>
<path d="M77.6297 10.795C77.6297 10.9673 77.6433 11.1305 77.6705 11.2846C77.7068 11.4297 77.7657 11.5566 77.8473 11.6654C77.9289 11.7742 78.0422 11.8604 78.1873 11.9238C78.3414 11.9782 78.5364 12.0054 78.7721 12.0054H79.4929C79.5926 12.0054 79.6788 12.0417 79.7513 12.1142C79.8238 12.1868 79.8601 12.2729 79.8601 12.3726V12.8078C79.8601 12.9076 79.8238 12.9937 79.7513 13.0662C79.6788 13.1388 79.5926 13.175 79.4929 13.175H78.6361C77.8473 13.175 77.2761 12.971 76.9225 12.563C76.5689 12.155 76.3921 11.5657 76.3921 10.795V7.27264H75.3857C75.286 7.27264 75.1998 7.23638 75.1273 7.16384C75.0548 7.09131 75.0185 7.00518 75.0185 6.90544V6.47024C75.0185 6.37051 75.0548 6.28438 75.1273 6.21184C75.1998 6.13931 75.286 6.10304 75.3857 6.10304H76.3921V3.88624C76.3921 3.78651 76.4284 3.70038 76.5009 3.62784C76.5734 3.55531 76.6596 3.51904 76.7593 3.51904H77.2625C77.3622 3.51904 77.4484 3.55531 77.5209 3.62784C77.5934 3.70038 77.6297 3.78651 77.6297 3.88624V6.10304H79.3569C79.4566 6.10304 79.5428 6.13931 79.6153 6.21184C79.6878 6.28438 79.7241 6.37051 79.7241 6.47024V6.90544C79.7241 7.00518 79.6878 7.09131 79.6153 7.16384C79.5428 7.23638 79.4566 7.27264 79.3569 7.27264H77.6297V10.795Z" fill="white"/>
<path d="M80.7222 11.3934C80.7222 11.0308 80.7948 10.7134 80.9398 10.4414C81.0849 10.1694 81.2844 9.93824 81.5382 9.74784C81.7921 9.55744 82.0868 9.40331 82.4222 9.28544C82.7668 9.16758 83.1294 9.07691 83.5102 9.01344L85.4278 8.70064V8.52384C85.4278 8.06144 85.2737 7.71691 84.9654 7.49024C84.6662 7.25451 84.29 7.13664 83.8366 7.13664C83.4377 7.13664 83.134 7.20918 82.9254 7.35424C82.726 7.49931 82.5537 7.67158 82.4086 7.87104C82.3542 7.94358 82.2953 7.99344 82.2318 8.02064C82.1684 8.04784 82.0822 8.06144 81.9734 8.06144H81.5654C81.4657 8.06144 81.375 8.02518 81.2934 7.95264C81.2209 7.88011 81.1892 7.79398 81.1982 7.69424C81.2164 7.49478 81.2934 7.29078 81.4294 7.08224C81.5745 6.87371 81.7649 6.68784 82.0006 6.52464C82.2454 6.36144 82.522 6.22998 82.8302 6.13024C83.1476 6.02144 83.483 5.96704 83.8366 5.96704C84.2446 5.96704 84.6209 6.02598 84.9654 6.14384C85.319 6.26171 85.6182 6.43398 85.863 6.66064C86.1169 6.88731 86.3118 7.16838 86.4478 7.50384C86.5929 7.83931 86.6654 8.22464 86.6654 8.65984V12.8078C86.6654 12.9076 86.6292 12.9937 86.5566 13.0662C86.4841 13.1388 86.398 13.175 86.2982 13.175H85.795C85.6953 13.175 85.6092 13.1388 85.5366 13.0662C85.4641 12.9937 85.4278 12.9076 85.4278 12.8078V12.2502C85.3462 12.4225 85.2193 12.5766 85.047 12.7126C84.8748 12.8396 84.6753 12.9484 84.4486 13.039C84.231 13.1297 83.9998 13.1977 83.755 13.243C83.5193 13.2884 83.2972 13.311 83.0886 13.311C82.735 13.311 82.4086 13.2612 82.1094 13.1614C81.8193 13.0617 81.57 12.9302 81.3614 12.767C81.162 12.5948 81.0033 12.3908 80.8854 12.155C80.7766 11.9193 80.7222 11.6654 80.7222 11.3934ZM83.2246 12.1414C83.551 12.1414 83.8502 12.0916 84.1222 11.9918C84.3942 11.8921 84.6254 11.7561 84.8158 11.5838C85.0153 11.4025 85.1649 11.1894 85.2646 10.9446C85.3734 10.6998 85.4278 10.4278 85.4278 10.1286V9.78864L83.823 10.047C83.2518 10.1377 82.7985 10.2828 82.463 10.4822C82.1276 10.6817 81.9598 10.9401 81.9598 11.2574C81.9598 11.3572 81.9825 11.4569 82.0278 11.5566C82.0732 11.6564 82.1457 11.7516 82.2454 11.8422C82.3452 11.9329 82.4721 12.0054 82.6262 12.0598C82.7894 12.1142 82.9889 12.1414 83.2246 12.1414Z" fill="white"/>
<path d="M89.8872 12.8078C89.8872 12.9076 89.851 12.9937 89.7784 13.0662C89.7059 13.1388 89.6198 13.175 89.52 13.175H89.0168C88.9171 13.175 88.831 13.1388 88.7584 13.0662C88.6859 12.9937 88.6496 12.9076 88.6496 12.8078V3.88624C88.6496 3.78651 88.6859 3.70038 88.7584 3.62784C88.831 3.55531 88.9171 3.51904 89.0168 3.51904H89.52C89.6198 3.51904 89.7059 3.55531 89.7784 3.62784C89.851 3.70038 89.8872 3.78651 89.8872 3.88624V12.8078Z" fill="white"/>
</g>
</g>
<defs>
<linearGradient id="paint0_linear_302_13680" x1="16.8316" y1="7.05133" x2="0.260507" y2="7.05133" gradientUnits="userSpaceOnUse">
<stop stop-color="#F19A38"/>
<stop offset="1" stop-color="#EB4626"/>
</linearGradient>
<linearGradient id="paint1_linear_302_13680" x1="16.8316" y1="7.05133" x2="0.260507" y2="7.05133" gradientUnits="userSpaceOnUse">
<stop stop-color="#F19A38"/>
<stop offset="1" stop-color="#EB4626"/>
</linearGradient>
</defs>
</svg>
